[{
        "id": 101,
        "name": "TJS YELLOW SHIRT",
        "price": 3500,
        "img": {
            "path": "/assets/img/shop/shirts/goldenBrown/square/main.jpg",
            "wrapperPath": "/assets/img/shop/shirts/goldenBrown/square/wrapper.jpg",
            "additionalImages": [
                "/assets/img/shop/shirts/goldenBrown/square/additional1.jpg",
                "/assets/img/shop/shirts/goldenBrown/square/additional2.jpg",
                "/assets/img/shop/shirts/goldenBrown/square/additional3.jpg"
            ]
        },
        "rating": 4,
        "description": "A simple office wear shirt makes the wearer stay out of the crowd with its classic design and color. The fabric is very light on the skin and is easy to breathe. The fitting is a classic fit that is most comfortable and makes the man look very attractive. ",
        "available": false,
        "availableSizes": [36, 38, 40, 42, 44],
        "reviews": [{
                "date": "12 Dec 2019",
                "time": "12:30",
                "rating": 3,
                "name": "SampleName",
                "email": "abc@abc.com",
                "message": "Lorem ipsum dolor sit amet, consectetur adipisicing elit, sed do eiusmod tempor incididunt ut labore et dolore magna aliqua. Utenim ad minim veniam, quis nost rud exercitation ullamco laboris nisi ut aliquip ex ea commodo consequat. Lorem ipsum dolor sit amet, consectetur adipisicing elit, sed do eiusmod tempor incididunt ut labore et dolore magna aliqua. Utenim ad minim veniam, quis nost."
            },
            {
                "date": "14 Dec 2019",
                "time": "12:40",
                "rating": 4,
                "name": "SampleName2",
                "email": "abc@abc.com",
                "message": "Test2 Test 2 Lorem ipsum dolor sit amet, consectetur adipisicing elit, sed do eiusmod tempor incididunt ut labore et dolore magna aliqua. Utenim ad minim veniam, quis nost rud exercitation ullamco laboris nisi ut aliquip ex ea commodo consequat. Lorem ipsum dolor sit amet, consectetur adipisicing elit, sed do eiusmod tempor incididunt ut labore et dolore magna aliqua. Utenim ad minim veniam, quis nost."
            }
        ]
    },
    {
        "id": 102,
        "name": "TJS MULTICOLOUR SHIRT",
        "price": 3200,
        "img": {
            "path": "/assets/img/shop/shirts/multiColor/square/main.jpg",
            "wrapperPath": "/assets/img/shop/shirts/multiColor/square/wrapper.jpg",
            "additionalImages": [
                "/assets/img/shop/shirts/multiColor/square/additional1.jpg",
                "/assets/img/shop/shirts/multiColor/square/additional2.jpg",
                "/assets/img/shop/shirts/multiColor/square/additional3.jpg"
            ]
        },
        "rating": 3,
        "description": "The bright combination is the right choice for those who like to look vibrant in the glazing light. The fabric is very light on the skin and easy to breathe. It's a classic fit which is most comfortable and makes the man look very attractive.",
        "available": false,
        "availableSizes": [36, 38, 40, 42, 44],
        "reviews": [{
                "date": "12 Dec 2019",
                "time": "12:30",
                "rating": 3,
                "name": "SampleName",
                "email": "abc@abc.com",
                "message": "Lorem ipsum dolor sit amet, consectetur adipisicing elit, sed do eiusmod tempor incididunt ut labore et dolore magna aliqua. Utenim ad minim veniam, quis nost rud exercitation ullamco laboris nisi ut aliquip ex ea commodo consequat. Lorem ipsum dolor sit amet, consectetur adipisicing elit, sed do eiusmod tempor incididunt ut labore et dolore magna aliqua. Utenim ad minim veniam, quis nost."
            },
            {
                "date": "14 Dec 2019",
                "time": "12:40",
                "rating": 4,
                "name": "SampleName2",
                "email": "abc@abc.com",
                "message": "Test2 Test 2 Lorem ipsum dolor sit amet, consectetur adipisicing elit, sed do eiusmod tempor incididunt ut labore et dolore magna aliqua. Utenim ad minim veniam, quis nost rud exercitation ullamco laboris nisi ut aliquip ex ea commodo consequat. Lorem ipsum dolor sit amet, consectetur adipisicing elit, sed do eiusmod tempor incididunt ut labore et dolore magna aliqua. Utenim ad minim veniam, quis nost."
            }
        ]
    },
    {
        "id": 103,
        "name": "TJS BLUE SHIRT",
        "price": 4000,
        "img": {
            "path": "/assets/img/shop/shirts/Blue/square/main.jpg",
            "wrapperPath": "/assets/img/shop/shirts/Blue/square/wrapper.jpg",
            "additionalImages": [
                "/assets/img/shop/shirts/Blue/square/additional1.jpg",
                "/assets/img/shop/shirts/Blue/square/additional2.jpg",
                "/assets/img/shop/shirts/Blue/square/additional3.jpg"
            ]
        },
        "rating": 3,
        "description": "The Classic blue Ikat shirt with full sleeves would be the most desirable pattern for men this summer, as it is expected to reach high temperatures, these ikat shirts would be the right choice for men to beat the heat like a pro. It has a comfortable slim fit with single pocket which makes the man look very attractive.",
        "available": false,
        "availableSizes": [36, 38, 40, 42, 44],
        "reviews": [{
                "date": "12 Dec 2019",
                "time": "12:30",
                "rating": 3,
                "name": "SampleName",
                "email": "abc@abc.com",
                "message": "Lorem ipsum dolor sit amet, consectetur adipisicing elit, sed do eiusmod tempor incididunt ut labore et dolore magna aliqua. Utenim ad minim veniam, quis nost rud exercitation ullamco laboris nisi ut aliquip ex ea commodo consequat. Lorem ipsum dolor sit amet, consectetur adipisicing elit, sed do eiusmod tempor incididunt ut labore et dolore magna aliqua. Utenim ad minim veniam, quis nost."
            },
            {
                "date": "14 Dec 2019",
                "time": "12:40",
                "rating": 4,
                "name": "SampleName2",
                "email": "abc@abc.com",
                "message": "Test2 Test 2 Lorem ipsum dolor sit amet, consectetur adipisicing elit, sed do eiusmod tempor incididunt ut labore et dolore magna aliqua. Utenim ad minim veniam, quis nost rud exercitation ullamco laboris nisi ut aliquip ex ea commodo consequat. Lorem ipsum dolor sit amet, consectetur adipisicing elit, sed do eiusmod tempor incididunt ut labore et dolore magna aliqua. Utenim ad minim veniam, quis nost."
            }
        ]
    },
    {
        "id": 104,
        "name": "TJS RED SHIRT",
        "price": 4500,
        "img": {
            "path": "/assets/img/shop/shirts/Red/square/main.jpg",
            "wrapperPath": "/assets/img/shop/shirts/Red/square/wrapper.jpg",
            "additionalImages": [
                "/assets/img/shop/shirts/Red/square/additional1.jpg",
                "/assets/img/shop/shirts/Red/square/additional2.jpg",
                "/assets/img/shop/shirts/Red/square/additional3.jpg"
            ]
        },
        "rating": 3,
        "description": "The bright color wavy pattern shirt is the right choice for those who like to experiment with their clothing styles. The fabric is very light on the skin and is easy to breathe. It's a classic fit which is most comfortable and makes the man look very attractive.",
        "available": false,
        "availableSizes": [36, 38, 40, 42, 44],
        "reviews": [{
                "date": "12 Dec 2019",
                "time": "12:30",
                "rating": 3,
                "name": "SampleName",
                "email": "abc@abc.com",
                "message": "Lorem ipsum dolor sit amet, consectetur adipisicing elit, sed do eiusmod tempor incididunt ut labore et dolore magna aliqua. Utenim ad minim veniam, quis nost rud exercitation ullamco laboris nisi ut aliquip ex ea commodo consequat. Lorem ipsum dolor sit amet, consectetur adipisicing elit, sed do eiusmod tempor incididunt ut labore et dolore magna aliqua. Utenim ad minim veniam, quis nost."
            },
            {
                "date": "14 Dec 2019",
                "time": "12:40",
                "rating": 4,
                "name": "SampleName2",
                "email": "abc@abc.com",
                "message": "Test2 Test 2 Lorem ipsum dolor sit amet, consectetur adipisicing elit, sed do eiusmod tempor incididunt ut labore et dolore magna aliqua. Utenim ad minim veniam, quis nost rud exercitation ullamco laboris nisi ut aliquip ex ea commodo consequat. Lorem ipsum dolor sit amet, consectetur adipisicing elit, sed do eiusmod tempor incididunt ut labore et dolore magna aliqua. Utenim ad minim veniam, quis nost."
            }
        ]
    },
    {
        "id": 105,
        "name": "TJS GREEN SHIRT",
        "price": 3500,
        "img": {
            "path": "/assets/img/shop/shirts/green/square/main.jpg",
            "wrapperPath": "/assets/img/shop/shirts/green/square/wrapper.jpg",
            "additionalImages": [
                "/assets/img/shop/shirts/green/square/additional1.jpg",
                "/assets/img/shop/shirts/green/square/additional2.jpg",
                "/assets/img/shop/shirts/green/square/additional3.jpg"
            ]
        },
        "rating": 3,
        "description": "The simple tunic color design with no extra features, makes the wearer look very simple and elegant. The fabric is very light on the skin and is easy to breathe. It's a classic fit which is most comfortable and makes the man look very attractive.",
        "available": false,
        "availableSizes": [36, 38, 40, 42, 44],
        "reviews": [{
                "date": "12 Dec 2019",
                "time": "12:30",
                "rating": 3,
                "name": "SampleName",
                "email": "abc@abc.com",
                "message": "Lorem ipsum dolor sit amet, consectetur adipisicing elit, sed do eiusmod tempor incididunt ut labore et dolore magna aliqua. Utenim ad minim veniam, quis nost rud exercitation ullamco laboris nisi ut aliquip ex ea commodo consequat. Lorem ipsum dolor sit amet, consectetur adipisicing elit, sed do eiusmod tempor incididunt ut labore et dolore magna aliqua. Utenim ad minim veniam, quis nost."
            },
            {
                "date": "14 Dec 2019",
                "time": "12:40",
                "rating": 4,
                "name": "SampleName2",
                "email": "abc@abc.com",
                "message": "Test2 Test 2 Lorem ipsum dolor sit amet, consectetur adipisicing elit, sed do eiusmod tempor incididunt ut labore et dolore magna aliqua. Utenim ad minim veniam, quis nost rud exercitation ullamco laboris nisi ut aliquip ex ea commodo consequat. Lorem ipsum dolor sit amet, consectetur adipisicing elit, sed do eiusmod tempor incididunt ut labore et dolore magna aliqua. Utenim ad minim veniam, quis nost."
            }
        ]
    },
    {
        "id": 106,
        "name": "TJS Black Ikat Shirt",
        "price": 3500,
        "img": {
            "path": "/assets/img/shop/shirts/Black/01.png",
            "wrapperPath": "/assets/img/shop/shirts/Black/02.png",
            "additionalImages": [
                "/assets/img/shop/shirts/Black/03.png",
                "/assets/img/shop/shirts/Black/01.png",
                "/assets/img/shop/shirts/Black/04.png"
            ]
        },
        "rating": 3,
        "description": "TJS double Ikat black shirt projects personality of power and elegance, the TJS classic fit gives comfort to wear it either as casual wear or as formal wear.",
        "available": true,
        "availableSizes": [36, 38, 40, 42, 44],
        "reviews": [{
                "date": "12 Dec 2019",
                "time": "12:30",
                "rating": 3,
                "name": "SampleName",
                "email": "abc@abc.com",
                "message": "Lorem ipsum dolor sit amet, consectetur adipisicing elit, sed do eiusmod tempor incididunt ut labore et dolore magna aliqua. Utenim ad minim veniam, quis nost rud exercitation ullamco laboris nisi ut aliquip ex ea commodo consequat. Lorem ipsum dolor sit amet, consectetur adipisicing elit, sed do eiusmod tempor incididunt ut labore et dolore magna aliqua. Utenim ad minim veniam, quis nost."
            },
            {
                "date": "14 Dec 2019",
                "time": "12:40",
                "rating": 4,
                "name": "SampleName2",
                "email": "abc@abc.com",
                "message": "Test2 Test 2 Lorem ipsum dolor sit amet, consectetur adipisicing elit, sed do eiusmod tempor incididunt ut labore et dolore magna aliqua. Utenim ad minim veniam, quis nost rud exercitation ullamco laboris nisi ut aliquip ex ea commodo consequat. Lorem ipsum dolor sit amet, consectetur adipisicing elit, sed do eiusmod tempor incididunt ut labore et dolore magna aliqua. Utenim ad minim veniam, quis nost."
            }
        ]
    },
    {
        "id": 107,
        "name": "TJS Berry Blue Shirt",
        "price": 4700,
        "img": {
            "path": "/assets/img/shop/shirts/Blue/01.png",
            "wrapperPath": "/assets/img/shop/shirts/Blue/02.png",
            "additionalImages": [
                "/assets/img/shop/shirts/Blue/03.png",
                "/assets/img/shop/shirts/Blue/01.png",
                "/assets/img/shop/shirts/Blue/04.png"
            ]
        },
        "rating": 3,
        "description": "Blue projects an idealistic and a free thinking individual within you. This 'Berry Blue' TJS classic fit shirt gives vintage look and makes you stay ahead of fashion trends.",
        "available": true,
        "availableSizes": [36, 38, 40, 42, 44],
        "reviews": [{
                "date": "12 Dec 2019",
                "time": "12:30",
                "rating": 3,
                "name": "SampleName",
                "email": "abc@abc.com",
                "message": "Lorem ipsum dolor sit amet, consectetur adipisicing elit, sed do eiusmod tempor incididunt ut labore et dolore magna aliqua. Utenim ad minim veniam, quis nost rud exercitation ullamco laboris nisi ut aliquip ex ea commodo consequat. Lorem ipsum dolor sit amet, consectetur adipisicing elit, sed do eiusmod tempor incididunt ut labore et dolore magna aliqua. Utenim ad minim veniam, quis nost."
            },
            {
                "date": "14 Dec 2019",
                "time": "12:40",
                "rating": 4,
                "name": "SampleName2",
                "email": "abc@abc.com",
                "message": "Test2 Test 2 Lorem ipsum dolor sit amet, consectetur adipisicing elit, sed do eiusmod tempor incididunt ut labore et dolore magna aliqua. Utenim ad minim veniam, quis nost rud exercitation ullamco laboris nisi ut aliquip ex ea commodo consequat. Lorem ipsum dolor sit amet, consectetur adipisicing elit, sed do eiusmod tempor incididunt ut labore et dolore magna aliqua. Utenim ad minim veniam, quis nost."
            }
        ]
    },
    {
        "id": 108,
        "name": "TJS Banboo & Black T-shirt",
        "price": 1799,
        "img": {
            "path": "/assets/img/shop/shirts/Black T-shirt/01.png",
            "wrapperPath": "/assets/img/shop/shirts/Black T-shirt/02.png",
            "additionalImages": [
                "/assets/img/shop/shirts/Black T-shirt/03.png",
                "/assets/img/shop/shirts/Black T-shirt/01.png",
                "/assets/img/shop/shirts/Black T-shirt/04.png"
            ]
        },
        "rating": 3,
        "description": "Experience the smoothest fabric ever made out of bamboo which is ethical yet aesthetical.  Black in its full splendour is a perfect colour to flaunt your elegant and powerful personality. Presenting to you, our royal black coloured, short-sleeved, v-neck t-shirt . These T-shirts are crafted for sundry wear that has unique features of hyper stretch, odour free and anti bacterial.",
        "available": true,
        "availableSizes": [36, 38, 40, 42, 44],
        "reviews": [{
                "date": "12 Dec 2019",
                "time": "12:30",
                "rating": 3,
                "name": "SampleName",
                "email": "abc@abc.com",
                "message": "Lorem ipsum dolor sit amet, consectetur adipisicing elit, sed do eiusmod tempor incididunt ut labore et dolore magna aliqua. Utenim ad minim veniam, quis nost rud exercitation ullamco laboris nisi ut aliquip ex ea commodo consequat. Lorem ipsum dolor sit amet, consectetur adipisicing elit, sed do eiusmod tempor incididunt ut labore et dolore magna aliqua. Utenim ad minim veniam, quis nost."
            },
            {
                "date": "14 Dec 2019",
                "time": "12:40",
                "rating": 4,
                "name": "SampleName2",
                "email": "abc@abc.com",
                "message": "Test2 Test 2 Lorem ipsum dolor sit amet, consectetur adipisicing elit, sed do eiusmod tempor incididunt ut labore et dolore magna aliqua. Utenim ad minim veniam, quis nost rud exercitation ullamco laboris nisi ut aliquip ex ea commodo consequat. Lorem ipsum dolor sit amet, consectetur adipisicing elit, sed do eiusmod tempor incididunt ut labore et dolore magna aliqua. Utenim ad minim veniam, quis nost."
            }
        ]
    },
    {
        "id": 109,
        "name": "TJS Maroon Kalamkari Shirt",
        "price": 2200,
        "img": {
            "path": "/assets/img/shop/shirts/Maroon/01.png",
            "wrapperPath": "/assets/img/shop/shirts/Maroon/02.png",
            "additionalImages": [
                "/assets/img/shop/shirts/Maroon/03.png",
                "/assets/img/shop/shirts/Maroon/01.png",
                "/assets/img/shop/shirts/Maroon/04.png"
            ]
        },
        "rating": 3,
        "description": "Paramount choice of people following imperial lifestyle would be maroon. Kalamkari blue block prints on maroon brings a royal touch & makes the design standout.This light weight half sleeved cotton shirt with a classy collar gives you an elegant look.",
        "available": true,
        "availableSizes": [36, 38, 40, 42, 44],
        "reviews": [{
                "date": "12 Dec 2019",
                "time": "12:30",
                "rating": 3,
                "name": "SampleName",
                "email": "abc@abc.com",
                "message": "Lorem ipsum dolor sit amet, consectetur adipisicing elit, sed do eiusmod tempor incididunt ut labore et dolore magna aliqua. Utenim ad minim veniam, quis nost rud exercitation ullamco laboris nisi ut aliquip ex ea commodo consequat. Lorem ipsum dolor sit amet, consectetur adipisicing elit, sed do eiusmod tempor incididunt ut labore et dolore magna aliqua. Utenim ad minim veniam, quis nost."
            },
            {
                "date": "14 Dec 2019",
                "time": "12:40",
                "rating": 4,
                "name": "SampleName2",
                "email": "abc@abc.com",
                "message": "Test2 Test 2 Lorem ipsum dolor sit amet, consectetur adipisicing elit, sed do eiusmod tempor incididunt ut labore et dolore magna aliqua. Utenim ad minim veniam, quis nost rud exercitation ullamco laboris nisi ut aliquip ex ea commodo consequat. Lorem ipsum dolor sit amet, consectetur adipisicing elit, sed do eiusmod tempor incididunt ut labore et dolore magna aliqua. Utenim ad minim veniam, quis nost."
            }
        ]
    },
    {
        "id": 110,
        "name": "TJS Peach Ikat Shirt",
        "price": 4200,
        "img": {
            "path": "/assets/img/shop/shirts/Peach/01.png",
            "wrapperPath": "/assets/img/shop/shirts/Peach/02.png",
            "additionalImages": [
                "/assets/img/shop/shirts/Peach/03.png",
                "/assets/img/shop/shirts/Peach/01.png",
                "/assets/img/shop/shirts/Peach/04.png"
            ]
        },
        "rating": 3,
        "description": "Peach color brings positivity & feel of rejuvenating.white single ikat patterns on the apparel bring in classy look to the fabric.TJS Peach Ikat shirt would be an ideal choice for any prime occasions.",
        "available": true,
        "availableSizes": [36, 38, 40, 42, 44],
        "reviews": [{
                "date": "12 Dec 2019",
                "time": "12:30",
                "rating": 3,
                "name": "SampleName",
                "email": "abc@abc.com",
                "message": "Lorem ipsum dolor sit amet, consectetur adipisicing elit, sed do eiusmod tempor incididunt ut labore et dolore magna aliqua. Utenim ad minim veniam, quis nost rud exercitation ullamco laboris nisi ut aliquip ex ea commodo consequat. Lorem ipsum dolor sit amet, consectetur adipisicing elit, sed do eiusmod tempor incididunt ut labore et dolore magna aliqua. Utenim ad minim veniam, quis nost."
            },
            {
                "date": "14 Dec 2019",
                "time": "12:40",
                "rating": 4,
                "name": "SampleName2",
                "email": "abc@abc.com",
                "message": "Test2 Test 2 Lorem ipsum dolor sit amet, consectetur adipisicing elit, sed do eiusmod tempor incididunt ut labore et dolore magna aliqua. Utenim ad minim veniam, quis nost rud exercitation ullamco laboris nisi ut aliquip ex ea commodo consequat. Lorem ipsum dolor sit amet, consectetur adipisicing elit, sed do eiusmod tempor incididunt ut labore et dolore magna aliqua. Utenim ad minim veniam, quis nost."
            }
        ]
    },
    {
        "id": 111,
        "name": "TJS Red Ikat Shirt",
        "price": 5499,
        "img": {
            "path": "/assets/img/shop/shirts/Red/01.png",
            "wrapperPath": "/assets/img/shop/shirts/Red/02.png",
            "additionalImages": [
                "/assets/img/shop/shirts/Red/03.png",
                "/assets/img/shop/shirts/Red/01.png",
                "/assets/img/shop/shirts/Red/04.png"
            ]
        },
        "rating": 3,
        "description": "You are the flame of your forest! Get ready to vibe in this bright, rosy, red-coloured Ikat cotton shirt with cool white sparks all over. It comes with a regular collar and full sleeves to make you feel comfortable and confident.",
        "available": true,
        "availableSizes": [36, 38, 40, 42, 44],
        "reviews": [{
                "date": "12 Dec 2019",
                "time": "12:30",
                "rating": 3,
                "name": "SampleName",
                "email": "abc@abc.com",
                "message": "Lorem ipsum dolor sit amet, consectetur adipisicing elit, sed do eiusmod tempor incididunt ut labore et dolore magna aliqua. Utenim ad minim veniam, quis nost rud exercitation ullamco laboris nisi ut aliquip ex ea commodo consequat. Lorem ipsum dolor sit amet, consectetur adipisicing elit, sed do eiusmod tempor incididunt ut labore et dolore magna aliqua. Utenim ad minim veniam, quis nost."
            },
            {
                "date": "14 Dec 2019",
                "time": "12:40",
                "rating": 4,
                "name": "SampleName2",
                "email": "abc@abc.com",
                "message": "Test2 Test 2 Lorem ipsum dolor sit amet, consectetur adipisicing elit, sed do eiusmod tempor incididunt ut labore et dolore magna aliqua. Utenim ad minim veniam, quis nost rud exercitation ullamco laboris nisi ut aliquip ex ea commodo consequat. Lorem ipsum dolor sit amet, consectetur adipisicing elit, sed do eiusmod tempor incididunt ut labore et dolore magna aliqua. Utenim ad minim veniam, quis nost."
            }
        ]
    },
    {
        "id": 112,
        "name": "TJS White Ikat Shirt",
        "price": 3200,
        "img": {
            "path": "/assets/img/shop/shirts/White/01.png",
            "wrapperPath": "/assets/img/shop/shirts/White/02.png",
            "additionalImages": [
                "/assets/img/shop/shirts/White/03.png",
                "/assets/img/shop/shirts/White/01.png",
                "/assets/img/shop/shirts/White/04.png"
            ]
        },
        "rating": 3,
        "description": "TJS single ikat white shirt with unique grey stripes would be a prized possession of your  wardrobe.TJS classic fit gives you comfort to wear it as a formal wear or a casual wear.",
        "available": true,
        "availableSizes": [36, 38, 40, 42, 44],
        "reviews": [{
                "date": "12 Dec 2019",
                "time": "12:30",
                "rating": 3,
                "name": "SampleName",
                "email": "abc@abc.com",
                "message": "Lorem ipsum dolor sit amet, consectetur adipisicing elit, sed do eiusmod tempor incididunt ut labore et dolore magna aliqua. Utenim ad minim veniam, quis nost rud exercitation ullamco laboris nisi ut aliquip ex ea commodo consequat. Lorem ipsum dolor sit amet, consectetur adipisicing elit, sed do eiusmod tempor incididunt ut labore et dolore magna aliqua. Utenim ad minim veniam, quis nost."
            },
            {
                "date": "14 Dec 2019",
                "time": "12:40",
                "rating": 4,
                "name": "SampleName2",
                "email": "abc@abc.com",
                "message": "Test2 Test 2 Lorem ipsum dolor sit amet, consectetur adipisicing elit, sed do eiusmod tempor incididunt ut labore et dolore magna aliqua. Utenim ad minim veniam, quis nost rud exercitation ullamco laboris nisi ut aliquip ex ea commodo consequat. Lorem ipsum dolor sit amet, consectetur adipisicing elit, sed do eiusmod tempor incididunt ut labore et dolore magna aliqua. Utenim ad minim veniam, quis nost."
            }
        ]
    },
    {
        "id": 113,
        "name": "TJS Bamboo & White T-shirt",
        "price": 2199,
        "img": {
            "path": "/assets/img/shop/shirts/White T-shirt/01.png",
            "wrapperPath": "/assets/img/shop/shirts/White T-shirt/02.png",
            "additionalImages": [
                "/assets/img/shop/shirts/White T-shirt/03.png",
                "/assets/img/shop/shirts/White T-shirt/01.png",
                "/assets/img/shop/shirts/White T-shirt/04.png"
            ]
        },
        "rating": 3,
        "description": "Experience the smoothest fabric ever made out of bamboo which is ethical yet aesthetical. Tap the freshness and purity of life within you with our bright white-coloured, short-sleeved, v-neck t-shirt made of bamboo fabric.  These T-shirts are crafted for sundry wear that has unique features of hyper stretch, odour free and anti bacterial.",
        "available": true,
        "availableSizes": [36, 38, 40, 42, 44],
        "reviews": [{
                "date": "12 Dec 2019",
                "time": "12:30",
                "rating": 3,
                "name": "SampleName",
                "email": "abc@abc.com",
                "message": "Lorem ipsum dolor sit amet, consectetur adipisicing elit, sed do eiusmod tempor incididunt ut labore et dolore magna aliqua. Utenim ad minim veniam, quis nost rud exercitation ullamco laboris nisi ut aliquip ex ea commodo consequat. Lorem ipsum dolor sit amet, consectetur adipisicing elit, sed do eiusmod tempor incididunt ut labore et dolore magna aliqua. Utenim ad minim veniam, quis nost."
            },
            {
                "date": "14 Dec 2019",
                "time": "12:40",
                "rating": 4,
                "name": "SampleName2",
                "email": "abc@abc.com",
                "message": "Test2 Test 2 Lorem ipsum dolor sit amet, consectetur adipisicing elit, sed do eiusmod tempor incididunt ut labore et dolore magna aliqua. Utenim ad minim veniam, quis nost rud exercitation ullamco laboris nisi ut aliquip ex ea commodo consequat. Lorem ipsum dolor sit amet, consectetur adipisicing elit, sed do eiusmod tempor incididunt ut labore et dolore magna aliqua. Utenim ad minim veniam, quis nost."
            }
        ]
    },
    {
        "id": 114,
        "name": "TJS Ash Kalamkari Shirt",
        "price": 2499,
        "img": {
            "path": "/assets/img/shop/shirts/Ash Kalamkari/01.png",
            "wrapperPath": "/assets/img/shop/shirts/Ash Kalamkari/02.png",
            "additionalImages": [
                "/assets/img/shop/shirts/Ash Kalamkari/03.png",
                "/assets/img/shop/shirts/Ash Kalamkari/01.png",
                "/assets/img/shop/shirts/Ash Kalamkari/04.png"
            ]
        },
        "rating": 3,
        "description": "Flaunt your artistic and fun loving nature in TJS Kalamkari half sleeved cotton shirt. It's light weight as your party mood, which is a perfect choice for a sassy look.",
        "available": true,
        "availableSizes": [36, 38, 40, 42, 44],
        "reviews": [{
                "date": "12 Dec 2019",
                "time": "12:30",
                "rating": 3,
                "name": "SampleName",
                "email": "abc@abc.com",
                "message": "Lorem ipsum dolor sit amet, consectetur adipisicing elit, sed do eiusmod tempor incididunt ut labore et dolore magna aliqua. Utenim ad minim veniam, quis nost rud exercitation ullamco laboris nisi ut aliquip ex ea commodo consequat. Lorem ipsum dolor sit amet, consectetur adipisicing elit, sed do eiusmod tempor incididunt ut labore et dolore magna aliqua. Utenim ad minim veniam, quis nost."
            },
            {
                "date": "14 Dec 2019",
                "time": "12:40",
                "rating": 4,
                "name": "SampleName2",
                "email": "abc@abc.com",
                "message": "Test2 Test 2 Lorem ipsum dolor sit amet, consectetur adipisicing elit, sed do eiusmod tempor incididunt ut labore et dolore magna aliqua. Utenim ad minim veniam, quis nost rud exercitation ullamco laboris nisi ut aliquip ex ea commodo consequat. Lorem ipsum dolor sit amet, consectetur adipisicing elit, sed do eiusmod tempor incididunt ut labore et dolore magna aliqua. Utenim ad minim veniam, quis nost."
            }
        ]
    }
]